…
mean <- 1:5
sd <- c(2, 1, 0.5, 1, 2)

sample <- data_frame(
  y = c(mapply(rnorm, mean = mean, sd = sd, MoreArgs = list(n = N))),
  distribution = rep(distributions, each = N),
  group = rep(groups, each = group_size))

sample
```

    #> # A tibble: 240 x 3
    #>             y distribution group
    #>         <dbl>        <chr> <chr>
    #>  1  2.0355661            a     A
    #>  2  2.4251103            a     A
    #>  3  0.7001281            a     A
    #>  4 -0.6477998            a     A
    #>  5  1.2728224            a     A
    #>  6  1.6601561            a     A
    #>  7  1.2103591            a     A
    #>  8 -1.0395949            a     A
    #>  9  1.7951571            a     A
    #> 10  3.5448991            a     A
    #> # ... with 230 more rows
…
